INDEX VERSION 1.131+/Users/gguu/BoostCourse/.metadata/.plugins/org.eclipse.jdt.core
3602922206.index
3325232900.index
897015255.index
199205444.index
324965813.index
1622596725.index
4154239352.index
1093149243.index
2479175585.index
